…
## TN Results

``` r
surface_results %>%
  select(site, short_name, contains('TN'))
#> # A tibble: 40 x 9
#>    site    short_name        TN_mn  TN_sd  TN_n TN_md TN_iqr TN_p90 TN_gm
#>    <fct>   <fct>             <dbl>  <dbl> <int> <dbl>  <dbl>  <dbl> <dbl>
#>  1 BMR02   B&M Railroad      0.345 0.186     22 0.294 0.162   0.456 0.314
#>  2 CBPR    Presumpscot Mouth 0.294 0.0863    21 0.289 0.083   0.4   0.282
#>  3 CMS1    Cousins Island    0.220 0.0862     9 0.179 0.0541  0.287 0.210
#>  4 CR-31   Cousins 2         0.444 0.236      7 0.391 0.298   0.766 0.396
#>  5 CR00    Cousins 1         0.65  0.193      6 0.691 0.274   0.837 0.622
#>  6 CRTRIB0 Cousins Trib      0.770 0.351      6 0.714 0.429   1.15  0.706
#>  7 EEB18   East End Beach    0.316 0.134     26 0.282 0.133   0.480 0.293
#>  8 FR09    Fore River 9      0.318 0.123     24 0.292 0.120   0.422 0.300
#>  9 HR01    Harraseeket A     0.335 0.0965     7 0.359 0.0925  0.418 0.320
#> 10 HR02    Harraseeket C     0.389 0.153      7 0.311 0.220   0.587 0.364
#> # ... with 30 more rows
```

## DIN Results

``` r
surface_results %>%
  select(site, short_name, contains('DIN'))
#> # A tibble: 40 x 9
#>    site    short_name        DIN_mn DIN_sd DIN_n DIN_md DIN_iqr DIN_p90 DIN_gm
#>    <fct>   <fct>              <dbl>  <dbl> <int>  <dbl>   <dbl>   <dbl>  <dbl>
#>  1 BMR02   B&M Railroad      0.257  0.852     22 0.0594 0.0431   0.111  0.0695
#>  2 CBPR    Presumpscot Mouth 0.269  0.867     21 0.047  0.056    0.137  0.0708
#>  3 CMS1    Cousins Island    0.0206 0.0296     9 0.0107 0.00667  0.0346 0.0131
#>  4 CR-31   Cousins 2         0.174  0.138      7 0.114  0.156    0.371  0.133 
#>  5 CR00    Cousins 1         0.312  0.163      6 0.322  0.213    0.484  0.271 
#>  6 CRTRIB0 Cousins Trib      0.216  0.209      6 0.138  0.34     0.476  0.125 
#>  7 EEB18   East End Beach    0.230  0.781     26 0.0675 0.0585   0.119  0.0694
#>  8 FR09    Fore River 9      0.0920 0.110     24 0.0620 0.0618   0.129  0.0591
#>  9 HR01    Harraseeket A     0.0547 0.0408     7 0.045  0.0190   0.0906 0.0442
#> 10 HR02    Harraseeket C     0.0599 0.0264     7 0.073  0.0385   0.0834 0.0539
#> # ... with 30 more rows
```
…
